<svg width="28" height="28" viewBox="0 0 28 28" fill="none" xmlns="http://www.w3.org/2000/svg">
<path fill-rule="evenodd" clip-rule="evenodd" d="M7.74209 10.7367C7.74209 9.97888 8.3532 9.36776 9.11098 9.36776H9.1232C9.88098 9.36776 10.4921 9.97888 10.4921 10.7367C10.4921 11.4944 9.88098 12.1055 9.1232 12.1055H9.11098C8.3532 12.1178 7.74209 11.4944 7.74209 10.7367Z" fill="white"/>
<path fill-rule="evenodd" clip-rule="evenodd" d="M17.5199 10.7367C17.5199 9.97888 18.131 9.36776 18.8888 9.36776H18.901C19.6588 9.36776 20.2699 9.97888 20.2699 10.7367C20.2699 11.4944 19.6588 12.1055 18.901 12.1055H18.8888C18.131 12.1178 17.5199 11.4944 17.5199 10.7367Z" fill="white"/>
<path fill-rule="evenodd" clip-rule="evenodd" d="M19.0599 1.27665C19.0599 0.87332 19.3776 0.555542 19.781 0.555542H23.2521C25.5621 0.555542 27.4443 2.43776 27.4443 4.74776V8.21888C27.4443 8.62221 27.1265 8.93999 26.7232 8.93999C26.3199 8.93999 26.0021 8.62221 26.0021 8.21888V4.74776C26.0021 3.23221 24.7676 1.99776 23.2521 1.99776H19.781C19.3776 1.99776 19.0599 1.67999 19.0599 1.27665Z" fill="white"/>
<path fill-rule="evenodd" clip-rule="evenodd" d="M8.93986 26.7233C8.93986 27.1267 8.62209 27.4444 8.21875 27.4444H4.74764C2.43764 27.4444 0.55542 25.5622 0.55542 23.2522V19.7811C0.55542 19.3778 0.873198 19.06 1.27653 19.06C1.67986 19.06 1.99764 19.3778 1.99764 19.7811V23.2522C1.99764 24.7678 3.23209 26.0022 4.74764 26.0022H8.21875C8.62209 26.0022 8.93986 26.32 8.93986 26.7233Z" fill="white"/>
<path fill-rule="evenodd" clip-rule="evenodd" d="M1.27653 8.93999C0.873198 8.93999 0.55542 8.62221 0.55542 8.21888V4.74776C0.55542 2.43776 2.43764 0.555542 4.74764 0.555542H8.21875C8.62209 0.555542 8.93986 0.87332 8.93986 1.27665C8.93986 1.67999 8.62209 1.99776 8.21875 1.99776H4.74764C3.23209 1.99776 1.99764 3.23221 1.99764 4.74776V8.21888C1.99764 8.62221 1.67986 8.93999 1.27653 8.93999Z" fill="white"/>
<path fill-rule="evenodd" clip-rule="evenodd" d="M26.7232 19.06C27.1265 19.06 27.4443 19.3778 27.4443 19.7811V23.2522C27.4443 25.5622 25.5621 27.4444 23.2521 27.4444H19.781C19.3776 27.4444 19.0599 27.1267 19.0599 26.7233C19.0599 26.32 19.3776 26.0022 19.781 26.0022H23.2521C24.7676 26.0022 26.0021 24.7678 26.0021 23.2522V19.7811C26.0021 19.3778 26.3199 19.06 26.7232 19.06Z" fill="white"/>
<path d="M13.9999 20.8811C8.62209 20.8811 7.21653 16.86 7.16764 16.6889C7.0332 16.2855 7.2532 15.8578 7.65653 15.7233C8.05986 15.5889 8.48764 15.8089 8.62209 16.2C8.67098 16.3344 9.77098 19.3533 14.0121 19.3533C18.3021 19.3533 19.3899 16.2367 19.4021 16.2122C19.5365 15.8089 19.9643 15.5889 20.3676 15.7233C20.771 15.8578 20.9788 16.2855 20.8565 16.6889C20.7832 16.86 19.3776 20.8811 13.9999 20.8811Z" fill="white"/>
</svg>
