<svg width="32" height="32" viewBox="0 0 32 32" fill="none" xmlns="http://www.w3.org/2000/svg">
<path fill-rule="evenodd" clip-rule="evenodd" d="M19.9236 10.4174V6.79414C19.9236 6.35555 20.268 6 20.6928 6C21.1176 6 21.462 6.35555 21.462 6.79414V10.4174C21.462 10.856 21.1176 11.2115 20.6928 11.2115C20.268 11.2115 19.9236 10.856 19.9236 10.4174ZM15.9001 9.03417C15.9001 9.47276 16.2445 9.82831 16.6694 9.82831C17.0942 9.82831 17.4386 9.47276 17.4386 9.03417V7.65005C17.4386 7.21146 17.0942 6.85591 16.6694 6.85591C16.2445 6.85591 15.9001 7.21146 15.9001 7.65005V9.03417ZM6.76898 22.4122C6.34415 22.4123 5.99986 22.768 6 23.2066C6.00014 23.6452 6.34465 24.0006 6.76948 24.0005L25.231 23.9943C25.6559 23.9941 26.0001 23.6385 26 23.1999C25.9999 22.7613 25.6554 22.4059 25.2305 22.406L23.7232 22.4065C23.9946 21.5682 24.1415 20.6714 24.1415 19.7403C24.1415 15.0974 20.4957 11.3335 15.9983 11.3335C11.501 11.3335 7.85522 15.0974 7.85522 19.7403C7.85522 20.6733 8.00272 21.5719 8.27517 22.4117L6.76898 22.4122ZM23.4333 13.6769C23.4333 14.1154 23.7777 14.471 24.2026 14.471C24.6274 14.471 24.9718 14.1154 24.9718 13.6769V10.5003C24.9718 10.0617 24.6274 9.70616 24.2026 9.70616C23.7777 9.70616 23.4333 10.0617 23.4333 10.5003V13.6769ZM15.9983 12.9218C12.3507 12.9218 9.39368 15.9746 9.39368 19.7403C9.39368 20.6876 9.58038 21.5883 9.91745 22.4065H13.2811L10.698 19.7398L16.0005 14.2655L21.3031 19.7398L18.72 22.4065H22.0792C22.4163 21.5883 22.603 20.6876 22.603 19.7403C22.603 15.9746 19.646 12.9218 15.9983 12.9218ZM16.5443 22.4065L19.1274 19.7398L16.0005 16.5117L12.8737 19.7398L15.4568 22.4065H16.5443Z" fill="white"/>
</svg>
