<svg width="18" height="14" viewBox="0 0 18 14" fill="none" xmlns="http://www.w3.org/2000/svg">
<path d="M9 0.900024C2.2 0.900024 0 7.00003 0 7.00003C0 7.00003 2.1 13.1 9 13.1C16.1 13.1 18 7.00003 18 7.00003C18 7.00003 16.1 0.900024 9 0.900024ZM9 11.1C6.7 11.1 4.9 9.20003 4.9 7.00003C4.9 4.80002 6.7 2.90002 9 2.90002C11.3 2.90002 13.1 4.80002 13.1 7.00003C13.1 9.20003 11.3 11.1 9 11.1Z" fill="#333333" fill-opacity="0.6"/>
</svg>
