<svg width="5" height="8" viewBox="0 0 5 8" fill="none" xmlns="http://www.w3.org/2000/svg">
<path fill-rule="evenodd" clip-rule="evenodd" d="M0.813195 7.1939C1.00846 7.37987 1.32504 7.37987 1.5203 7.1939L4.5203 4.33676C4.71556 4.15079 4.71556 3.84929 4.5203 3.66332L1.5203 0.80618C1.32504 0.620216 1.00846 0.620216 0.813195 0.80618C0.617933 0.992145 0.617933 1.29365 0.813195 1.47962L3.45964 4.00004L0.813195 6.52047C0.617933 6.70643 0.617933 7.00794 0.813195 7.1939Z" fill="#283991"/>
</svg>
