<svg width="8" height="12" viewBox="0 0 8 12" fill="none" xmlns="http://www.w3.org/2000/svg">
<path d="M7.06683 6.53333L1.60016 11.8C1.46683 11.9333 1.3335 12 1.1335 12C0.733496 12 0.46683 11.6667 0.46683 11.3333C0.46683 11.1333 0.533497 11 0.666831 10.8667L5.66683 6L0.666831 1.2C0.533498 1.06667 0.466831 0.866666 0.466831 0.666665C0.466831 0.266666 0.800164 -5.71162e-07 1.1335 -5.42021e-07C1.3335 -5.24537e-07 1.46683 0.0666651 1.60016 0.199998L7.06683 5.46667C7.20016 5.6 7.3335 5.8 7.3335 6C7.3335 6.2 7.20016 6.4 7.06683 6.53333Z" fill="white"/>
</svg>
