<svg width="12" height="18" viewBox="0 0 12 18" fill="none" xmlns="http://www.w3.org/2000/svg">
<path d="M1.20005 8.2L9.40005 0.3C9.60005 0.0999999 9.80005 0 10.1 0C10.7 0 11.1 0.5 11.1 1C11.1 1.3 11 1.5 10.8 1.7L3.30005 9L10.8 16.2C11 16.4 11.1 16.7 11.1 17C11.1 17.6 10.6 18 10.1 18C9.80005 18 9.60005 17.9 9.40005 17.7L1.20005 9.8C1.00005 9.6 0.800049 9.3 0.800049 9C0.800049 8.7 1.00005 8.4 1.20005 8.2Z" fill="#333333"/>
</svg>
